0,32,2,4,38,6,8,10,12,34,14,16,18,20,22,24,36,26,28,30
14.0261,13.6893,8.63013,30.0473,16.5387,11.7919,4.50098,9.20164,23.7803,3.68135,5.19264,11.3753,8.68029,25.9753,4.02627,3.60363,5.53248,7.12026,2.09711,5.03781
{'sp_hum': [], 'abs_hum': ['week_median', 'week_max_daily_variation'], 'temp': ['week_median'], 'rel_hum': [], 'u_wind': [], 'v_wind': []}
