0,2,4,6,8,10,12,14,16,18,20,22,24,26,28,30,32,34,36,38,40,42,44,46,48,50,52,54,56,58
8.2964,11.7618,3.54367,4.93944,7.03213,13.34,9.66686,3.90857,11.3401,1.98581,15.5539,3.1105,7.7445,7.18945,16.4404,10.4483,9.54992,8.4542,9.10744,6.01715,10.476,14.7395,20.4275,26.6441,7.58549,13.926,3.29188,13.4076,8.49885,3.32156
{'sp_hum': [], 'abs_hum': ['week_median', 'week_max_daily_variation'], 'temp': ['week_median'], 'rel_hum': [], 'u_wind': [], 'v_wind': []}
